{
  "total_pages": 8,
  "data": [
    {
      "id": 1,
      "number": "033992838",
      "total": 300,
      "status": "delivered",
      "created_at": "12 June 2021"
    },
    {
      "id": 2,
      "number": "03392838",
      "total": 5900.89,
      "status": "in-transit",
      "created_at": "15 June 2021"
    },
    {
      "id": 3,
      "number": "09283938",
      "total": 2400.77,
      "status": "delivered",
      "created_at": "22 June 2021"
    },
    {
      "id": 4,
      "number": "09283938",
      "total": 19000.23,
      "status": "cancelled",
      "created_at": "25 June 2021"
    },
    {
      "id": 5,
      "number": "0923494",
      "total": 33000.12,
      "status": "pending",
      "created_at": "29 June 2021"
    }
  ]
}